{
    "content": [
        {
            "identificadorSequencialContestacao": 132000015,
            "tipoCliente": "1",
            "identificacaoCliente": "08673747996",
            "detalhamentoIdentificacaoCliente": "08673747996",
            "prefixoAgencia": "704",
            "numeroContrato": "B909317290",
            "detalhamentoPrefixoAgencia": "704",
            "detalhamentoNumeroContrato": "B909317290",
            "tipoContestacao": "O",
            "dataAcolhimento": "2022-07-28",
            "nomeCliente": "KELVIN MERELES HENNIG",
            "codigoModalidade": "A01",
            "codigoOcorrencia": "0",
            "origemInformacao": "CREDITO_LEGADO",
            "nomeGbd": "SERASA",
            "dataEnvio": "2022-08-22@11:24",
            "dataResposta": null,
            "naoPodeEditar": false,
            "prazo": "VENCIDA"
        },
        {
            "identificadorSequencialContestacao": 130500035,
            "tipoCliente": "1",
            "identificacaoCliente": "51445905353",
            "detalhamentoIdentificacaoCliente": "51445905353",
            "prefixoAgencia": "2002",
            "numeroContrato": "B702905798",
            "detalhamentoPrefixoAgencia": "2002",
            "detalhamentoNumeroContrato": "B702905798",
            "tipoContestacao": "O",
            "dataAcolhimento": "2022-07-30",
            "nomeCliente": "MARCELO APOLO VIEIRA FRANKLIN",
            "codigoModalidade": "A01",
            "codigoOcorrencia": "0",
            "origemInformacao": "CREDITO_LEGADO",
            "nomeGbd": "SERASA",
            "dataEnvio": "2022-08-22@11:24",
            "dataResposta": null,
            "naoPodeEditar": false,
            "prazo": "VENCIDA"
        },
        {
            "identificadorSequencialContestacao": 130500034,
            "tipoCliente": "1",
            "identificacaoCliente": "51445905353",
            "detalhamentoIdentificacaoCliente": "51445905353",
            "prefixoAgencia": "2002",
            "numeroContrato": "B802302112",
            "detalhamentoPrefixoAgencia": "2002",
            "detalhamentoNumeroContrato": "B802302112",
            "tipoContestacao": "O",
            "dataAcolhimento": "2022-07-30",
            "nomeCliente": "MARCELO APOLO VIEIRA FRANKLIN",
            "codigoModalidade": "A01",
            "codigoOcorrencia": "0",
            "origemInformacao": "CREDITO_LEGADO",
            "nomeGbd": "SERASA",
            "dataEnvio": "2022-08-22@11:24",
            "dataResposta": null,
            "naoPodeEditar": false,
            "prazo": "VENCIDA"
        },
        {
            "identificadorSequencialContestacao": 133500011,
            "tipoCliente": "1",
            "identificacaoCliente": "41001799879",
            "detalhamentoIdentificacaoCliente": "41001799879",
            "prefixoAgencia": "3021",
            "numeroContrato": "G215086",
            "detalhamentoPrefixoAgencia": "3021",
            "detalhamentoNumeroContrato": "G215086",
            "tipoContestacao": "O",
            "dataAcolhimento": "2022-08-03",
            "nomeCliente": "JONATHAN RODRIGUES DOS SANTOS",
            "codigoModalidade": "E01",
            "codigoOcorrencia": "0",
            "origemInformacao": "ROTATIVO_CONTA_CORRENTE_LEGADO",
            "nomeGbd": "BOA_VISTA",
            "dataEnvio": "2022-08-22@11:24",
            "dataResposta": null,
            "naoPodeEditar": false,
            "prazo": "VENCIDA"
        },
        {
            "identificadorSequencialContestacao": 134100010,
            "tipoCliente": "1",
            "identificacaoCliente": "05070630075",
            "detalhamentoIdentificacaoCliente": "05070630075",
            "prefixoAgencia": "523",
            "numeroContrato": "5225900516827119",
            "detalhamentoPrefixoAgencia": "523",
            "detalhamentoNumeroContrato": "5225900516827119",
            "tipoContestacao": "O",
            "dataAcolhimento": "2022-08-04",
            "nomeCliente": "GUILHERME DORNELLES MILKE",
            "codigoModalidade": "D01",
            "codigoOcorrencia": "0",
            "origemInformacao": "CARTOES_PF_LEGADO",
            "nomeGbd": "SERASA",
            "dataEnvio": "2022-08-22@11:24",
            "dataResposta": null,
            "naoPodeEditar": false,
            "prazo": "VENCIDA"
        },
        {
            "identificadorSequencialContestacao": 133800010,
            "tipoCliente": "1",
            "identificacaoCliente": "26673037091",
            "detalhamentoIdentificacaoCliente": "26673037091",
            "prefixoAgencia": "179",
            "numeroContrato": "4891670085748113",
            "detalhamentoPrefixoAgencia": "179",
            "detalhamentoNumeroContrato": "4891670085748113",
            "tipoContestacao": "O",
            "dataAcolhimento": "2022-08-04",
            "nomeCliente": "PAULO ALBERTO CICCERI",
            "codigoModalidade": "D01",
            "codigoOcorrencia": "0",
            "origemInformacao": "CARTOES_PF_LEGADO",
            "nomeGbd": "SERASA",
            "dataEnvio": "2022-08-22@11:24",
            "dataResposta": null,
            "naoPodeEditar": false,
            "prazo": "VENCIDA"
        },
        {
            "identificadorSequencialContestacao": 134000010,
            "tipoCliente": "1",
            "identificacaoCliente": "07163722907",
            "detalhamentoIdentificacaoCliente": "07163722907",
            "prefixoAgencia": "710",
            "numeroContrato": "A113789",
            "detalhamentoPrefixoAgencia": "710",
            "detalhamentoNumeroContrato": "A113789",
            "tipoContestacao": "O",
            "dataAcolhimento": "2022-08-04",
            "nomeCliente": "VANTUIR DA SILVA",
            "codigoModalidade": "E02",
            "codigoOcorrencia": "0",
            "origemInformacao": "ROTATIVO_CONTA_CORRENTE_LEGADO",
            "nomeGbd": "SERASA",
            "dataEnvio": "2022-08-22@11:24",
            "dataResposta": null,
            "naoPodeEditar": false,
            "prazo": "VENCIDA"
        },
        {
            "identificadorSequencialContestacao": 134200010,
            "tipoCliente": "1",
            "identificacaoCliente": "09235935601",
            "detalhamentoIdentificacaoCliente": "09235935601",
            "prefixoAgencia": "136",
            "numeroContrato": "D0004763335070508220",
            "detalhamentoPrefixoAgencia": "136",
            "detalhamentoNumeroContrato": "D0004763335070508220",
            "tipoContestacao": "O",
            "dataAcolhimento": "2022-08-04",
            "nomeCliente": "FHILLIP MANUEL SILVA",
            "codigoModalidade": "D01",
            "codigoOcorrencia": "0",
            "origemInformacao": "CARTOES_DIGITAL",
            "nomeGbd": "SPC",
            "dataEnvio": "2022-08-22@11:24",
            "dataResposta": null,
            "naoPodeEditar": false,
            "prazo": "VENCIDA"
        },
        {
            "identificadorSequencialContestacao": 128400015,
            "tipoCliente": "1",
            "identificacaoCliente": "04826813490",
            "detalhamentoIdentificacaoCliente": "04826813490",
            "prefixoAgencia": "2210",
            "numeroContrato": "D0004345159000178889",
            "detalhamentoPrefixoAgencia": "2210",
            "detalhamentoNumeroContrato": "D0004345159000178889",
            "tipoContestacao": "O",
            "dataAcolhimento": "2022-08-06",
            "nomeCliente": "JEFFERSON DA SILVEIRA ALBUQUERQUE",
            "codigoModalidade": "D01",
            "codigoOcorrencia": "0",
            "origemInformacao": "CARTOES_DIGITAL",
            "nomeGbd": "SERASA",
            "dataEnvio": "2022-08-22@11:24",
            "dataResposta": null,
            "naoPodeEditar": false,
            "prazo": "VENCIDA"
        },
        {
            "identificadorSequencialContestacao": 134400009,
            "tipoCliente": "1",
            "identificacaoCliente": "01090182147",
            "detalhamentoIdentificacaoCliente": "01090182147",
            "prefixoAgencia": "914",
            "numeroContrato": "A061890",
            "detalhamentoPrefixoAgencia": "914",
            "detalhamentoNumeroContrato": "A061890",
            "tipoContestacao": "O",
            "dataAcolhimento": "2022-08-07",
            "nomeCliente": "LARISSE RODRIGUES DE MELO",
            "codigoModalidade": "E02",
            "codigoOcorrencia": "0",
            "origemInformacao": "ROTATIVO_CONTA_CORRENTE_LEGADO",
            "nomeGbd": "SERASA",
            "dataEnvio": "2022-08-22@11:24",
            "dataResposta": null,
            "naoPodeEditar": false,
            "prazo": "VENCIDA"
        }
    ],
    "pageable": {
        "sort": {
            "sorted": false,
            "unsorted": true,
            "empty": true
        },
        "pageSize": 10,
        "pageNumber": 0,
        "offset": 0,
        "paged": true,
        "unpaged": false
    },
    "totalElements": 48,
    "last": false,
    "totalPages": 5,
    "first": true,
    "sort": {
        "sorted": false,
        "unsorted": true,
        "empty": true
    },
    "numberOfElements": 10,
    "size": 10,
    "number": 0,
    "empty": false
}