{
    "content": [
        {
            "id": 700015,
            "codigoEntidade": "942302",
            "cnpj": "08488377000143",
            "nomFantasia": "CRESOL Guarani Das Missoes",
            "cep": null,
            "logradouro": null,
            "complemento": null,
            "bairro": null,
            "municipio": null,
            "uf": null,
            "tipoEntidade": null,
            "site": null,
            "departamento": null,
            "tipoTelefone": null,
            "codigoPais": null,
            "ddd": null,
            "telefone": null,
            "email": null,
            "situacao": null,
            "naoTemContatos": false,
            "prefixoAgencia": "9423",
            "statusEnvio": "INATIVO"
        }
    ],
    "pageable": {
        "sort": {
            "sorted": false,
            "unsorted": true,
            "empty": true
        },
        "pageSize": 3,
        "pageNumber": 0,
        "offset": 0,
        "paged": true,
        "unpaged": false
    },
    "totalPages": 74,
    "totalElements": 222,
    "last": false,
    "first": true,
    "sort": {
        "sorted": false,
        "unsorted": true,
        "empty": true
    },
    "numberOfElements": 1,
    "size": 3,
    "number": 0,
    "empty": false
}